{
  "project_info": {
    "project_number": "401328479951",
    "firebase_url": "https://fcmshowcase-android.firebaseio.com",
    "project_id": "fcmshowcase-android",
    "storage_bucket": "fcmshowcase-android.appspot.com"
  },
  "client": [
    {
      "client_info": {
        "mobilesdk_app_id": "1:401328479951:android:b2670454095c88ca",
        "android_client_info": {
          "package_name": "com.mocira.fcmshowcase"
        }
      },
      "oauth_client": [
        {
          "client_id": "401328479951-ogh0eaf6j65aoiuor18a6di3aa7tivp9.apps.googleusercontent.com",
          "client_type": 1,
          "android_info": {
            "package_name": "com.mocira.fcmshowcase",
            "certificate_hash": "0CF0DF5271A0E251872F1A7AA7EEE99DF7F7EE90"
          }
        },
        {
          "client_id": "401328479951-lrdd0r0g30rfup20j5hgi78gbr9es0p3.apps.googleusercontent.com",
          "client_type": 3
        }
      ],
      "api_key": [
        {
          "current_key": "AIzaSyBPmSsKlcIEV00hDqVdZznbNT_BuZeVF-c"
        }
      ],
      "services": {
        "analytics_service": {
          "status": 1
        },
        "appinvite_service": {
          "status": 2,
          "other_platform_oauth_client": [
            {
              "client_id": "401328479951-lrdd0r0g30rfup20j5hgi78gbr9es0p3.apps.googleusercontent.com",
              "client_type": 3
            }
          ]
        },
        "ads_service": {
          "status": 2
        }
      }
    }
  ],
  "configuration_version": "1"
}